Tonos_de_Telefono/Mediciones/Tono_1FFT.CSV

Record Length,1.024000e+03,,          0.00000, -40.16910,
Sample Interval,2.466067e+00,,          2.46607, -40.56910,
Trigger Point,0.000000000000e+00,,          4.93213, -45.76910,
,,,          7.39820, -58.56910,
,,,          9.86427, -60.96910,
,,,         12.33033, -60.96910,
Source,MATH,,         14.79640, -60.96910,
Vertical Units,dB,,         17.26247, -60.96910,
Vertical Scale,1.000000e+01,,         19.72854, -60.96910,
Vertical Offset,0.000000e+00,,         22.19460, -60.96910,
Horizontal Units,Hz,,         24.66067, -60.96910,
Horizontal Scale,2.525253e+02,,         27.12674, -60.96910,
Pt Fmt,Y,,         29.59280, -60.96910,
Yzero,-2.096910e+01,,         32.05887, -60.96910,
Probe Atten,1.000000e+00,,         34.52494, -60.96910,
Model Number,TDS2014C,,         36.99100, -60.96910,
Serial Number,C013081,,         39.45707, -60.96910,
Firmware Version,FV:v24.15,,         41.92314, -60.96910,
,,,44.38921, -60.96910,
,,,46.85528, -58.56910,
,,,49.32135, -54.56910,
,,,51.78742, -58.56910,
,,,54.25349, -58.56910,
,,,56.71956, -60.96910,
,,,59.18563, -60.96910,
,,,61.65170, -60.96910,
,,,64.11777, -60.96910,
,,,66.58384, -60.96910,
,,,69.04991, -58.56910,
,,,71.51598, -55.36910,
,,,73.98205, -60.96910,
,,,76.44812, -60.96910,
,,,78.91419, -60.96910,
,,,81.38026, -60.96910,
,,,83.84633, -58.56910,
,,,86.31240, -60.96910,
,,,88.77847, -60.96910,
,,,91.24454, -60.96910,
,,,93.71061, -55.36910,
,,,96.17668, -58.56910,
,,,98.64275, -58.56910,
,,,101.10882, -60.96910,
,,,103.57489, -55.36910,
,,,106.04096, -58.56910,
,,,108.50703, -58.56910,
,,,110.97310, -54.56910,
,,,113.43917, -58.56910,
,,,115.90524, -60.96910,
,,,118.37131, -58.56910,
,,,120.83738, -60.96910,
,,,123.30345, -55.36910,
,,,125.76952, -58.56910,
,,,128.23559, -55.36910,
,,,130.70166, -55.36910,
,,,133.16773, -60.96910,
,,,135.63380, -60.96910,
,,,138.09987, -58.56910,
,,,140.56594, -60.96910,
,,,143.03201, -60.96910,
,,,145.49808, -60.96910,
,,,147.96415, -60.96910,
,,,150.43022, -60.96910,
,,,152.89629, -60.96910,
,,,155.36236, -60.96910,
,,,157.82843, -58.56910,
,,,160.29450, -60.96910,
,,,162.76057, -60.96910,
,,,165.22664, -60.96910,
,,,167.69271, -60.96910,
,,,170.15878, -60.96910,
,,,172.62485, -60.96910,
,,,175.09092, -58.56910,
,,,177.55699, -60.96910,
,,,180.02306, -60.96910,
,,,182.48913, -60.96910,
,,,184.95520, -60.96910,
,,,187.42127, -60.96910,
,,,189.88734, -60.96910,
,,,192.35341, -58.56910,
,,,194.81948, -58.56910,
,,,197.28555, -58.56910,
,,,199.75162, -60.96910,
,,,202.21769, -54.56910,
,,,204.68376, -52.56910,
,,,207.14983, -54.56910,
,,,209.61590, -55.36910,
,,,212.08197, -60.96910,
,,,214.54804, -60.96910,
,,,217.01411, -60.96910,
,,,219.48018, -60.96910,
,,,221.94625, -51.36910,
,,,224.41232, -51.76910,
,,,226.87839, -51.76910,
,,,229.34446, -55.36910,
,,,231.81053, -60.96910,
,,,234.27660, -60.96910,
,,,236.74267, -60.96910,
,,,239.20874, -60.96910,
,,,241.67481, -60.96910,
,,,244.14088, -54.56910,
,,,246.60695, -58.56910,
,,,249.07302, -60.96910,
,,,251.53909, -58.56910,
,,,254.00516, -58.56910,
,,,256.47123, -60.96910,
,,,258.93730, -60.96910,
,,,261.40337, -60.96910,
,,,263.86944, -60.96910,
,,,266.33551, -60.96910,
,,,268.80158, -54.56910,
,,,271.26765, -54.56910,
,,,273.73372, -60.96910,
,,,276.19979, -58.56910,
,,,278.66586, -55.36910,
,,,281.13193, -55.36910,
,,,283.59800, -60.96910,
,,,286.06407, -58.56910,
,,,288.53014, -54.56910,
,,,290.99621, -54.56910,
,,,293.46228, -60.96910,
,,,295.92835, -60.96910,
,,,298.39442, -60.96910,
,,,300.86049, -60.96910,
,,,303.32656, -60.96910,
,,,305.79263, -60.96910,
,,,308.25870, -60.96910,
,,,310.72477, -60.96910,
,,,313.19084, -58.56910,
,,,315.65691, -58.56910,
,,,318.12298, -60.96910,
,,,320.58905, -60.96910,
,,,323.05512, -60.96910,
,,,325.52119, -60.96910,
,,,327.98726, -58.56910,
,,,330.45333, -55.36910,
,,,332.91940, -54.56910,
,,,335.38547, -60.96910,
,,,337.85154, -60.96910,
,,,340.31761, -60.96910,
,,,342.78368, -58.56910,
,,,345.24975, -58.56910,
,,,347.71582, -60.96910,
,,,350.18189, -60.96910,
,,,352.64796, -60.96910,
,,,355.11403, -60.96910,
,,,357.58010, -55.36910,
,,,360.04617, -58.56910,
,,,362.51224, -60.96910,
,,,364.97831, -60.96910,
,,,367.44438, -60.96910,
,,,369.91045, -60.96910,
,,,372.37652, -54.56910,
,,,374.84259, -60.96910,
,,,377.30866, -60.96910,
,,,379.77473, -60.96910,
,,,382.24080, -58.56910,
,,,384.70687, -60.96910,
,,,387.17294, -60.96910,
,,,389.63901, -60.96910,
,,,392.10508, -60.96910,
,,,394.57115, -60.96910,
,,,397.03722, -58.56910,
,,,399.50329, -58.56910,
,,,401.96936, -54.56910,
,,,404.43543, -60.96910,
,,,406.90150, -58.56910,
,,,409.36757, -58.56910,
,,,411.83364, -60.96910,
,,,414.29971, -60.96910,
,,,416.76578, -60.96910,
,,,419.23185, -58.56910,
,,,421.69792, -60.96910,
,,,424.16399, -58.56910,
,,,426.63006, -58.56910,
,,,429.09613, -60.96910,
,,,431.56220, -55.36910,
,,,434.02827, -58.56910,
,,,436.49434, -60.96910,
,,,438.96041, -58.56910,
,,,441.42648, -60.96910,
,,,443.89255, -60.96910,
,,,446.35862, -60.96910,
,,,448.82469, -60.96910,
,,,451.29076, -60.96910,
,,,453.75683, -60.96910,
,,,456.22290, -60.96910,
,,,458.68897, -60.96910,
,,,461.15504, -60.96910,
,,,463.62111, -60.96910,
,,,466.08718, -60.96910,
,,,468.55325, -60.96910,
,,,471.01932, -60.96910,
,,,473.48539, -60.96910,
,,,475.95146, -60.96910,
,,,478.41753, -60.96910,
,,,480.88360, -60.96910,
,,,483.34967, -60.96910,
,,,485.81574, -58.56910,
,,,488.28181, -55.36910,
,,,490.74788, -55.36910,
,,,493.21395, -60.96910,
,,,495.68002, -60.96910,
,,,498.14609, -60.96910,
,,,500.61216, -55.36910,
,,,503.07823, -54.56910,
,,,505.54430, -54.56910,
,,,508.01037, -54.56910,
,,,510.47644, -60.96910,
,,,512.94251, -60.96910,
,,,515.40858, -58.56910,
,,,517.87465, -60.96910,
,,,520.34072, -60.96910,
,,,522.80679, -58.56910,
,,,525.27286, -60.96910,
,,,527.73893, -58.56910,
,,,530.20500, -58.56910,
,,,532.67107, -55.36910,
,,,535.13714, -58.56910,
,,,537.60321, -54.56910,
,,,540.06928, -60.96910,
,,,542.53535, -60.96910,
,,,545.00142, -60.96910,
,,,547.46749, -58.56910,
,,,549.93356, -60.96910,
,,,552.39963, -60.96910,
,,,554.86570, -60.96910,
,,,557.33177, -60.96910,
,,,559.79784, -60.96910,
,,,562.26391, -55.36910,
,,,564.72998, -55.36910,
,,,567.19605, -51.36910,
,,,569.66212, -54.56910,
,,,572.12819, -54.56910,
,,,574.59426, -58.56910,
,,,577.06033, -55.36910,
,,,579.52640, -55.36910,
,,,581.99247, -58.56910,
,,,584.45854, -54.56910,
,,,586.92461, -55.36910,
,,,589.39068, -55.36910,
,,,591.85675, -60.96910,
,,,594.32282, -60.96910,
,,,596.78889, -60.96910,
,,,599.25496, -60.96910,
,,,601.72103, -60.96910,
,,,604.18710, -60.96910,
,,,606.65317, -60.96910,
,,,609.11924, -58.56910,
,,,611.58531, -58.56910,
,,,614.05138, -60.96910,
,,,616.51745, -60.96910,
,,,618.98352, -60.96910,
,,,621.44959, -60.96910,
,,,623.91566, -60.96910,
,,,626.38173, -58.56910,
,,,628.84780, -60.96910,
,,,631.31387, -60.96910,
,,,633.77994, -60.96910,
,,,636.24601, -60.96910,
,,,638.71208, -60.96910,
,,,641.17815, -60.96910,
,,,643.64422, -60.96910,
,,,646.11029, -58.56910,
,,,648.57636, -60.96910,
,,,651.04243, -58.56910,
,,,653.50850, -54.56910,
,,,655.97457, -60.96910,
,,,658.44064, -60.96910,
,,,660.90671, -60.96910,
,,,663.37278, -60.96910,
,,,665.83885, -58.56910,
,,,668.30492, -54.56910,
,,,670.77099, -54.56910,
,,,673.23706, -54.56910,
,,,675.70313, -54.56910,
,,,678.16920, -60.96910,
,,,680.63527, -60.96910,
,,,683.10134, -60.96910,
,,,685.56741, -60.96910,
,,,688.03348, -58.56910,
,,,690.49955, -60.96910,
,,,692.96562, -46.16910,
,,,695.43169, -18.16910,
,,,697.89776, -12.56910,
,,,700.36383, -12.16910,
,,,702.82990, -12.96910,
,,,705.29597, -20.96910,
,,,707.76204, -48.96910,
,,,710.22811, -60.96910,
,,,712.69418, -54.56910,
,,,715.16025, -58.56910,
,,,717.62632, -60.96910,
,,,720.09239, -60.96910,
,,,722.55846, -58.56910,
,,,725.02453, -60.96910,
,,,727.49060, -60.96910,
,,,729.95667, -60.96910,
,,,732.42274, -60.96910,
,,,734.88881, -60.96910,
,,,737.35488, -60.96910,
,,,739.82095, -60.96910,
,,,742.28702, -60.96910,
,,,744.75309, -60.96910,
,,,747.21916, -60.96910,
,,,749.68523, -60.96910,
,,,752.15130, -60.96910,
,,,754.61737, -60.96910,
,,,757.08344, -58.56910,
,,,759.54951, -60.96910,
,,,762.01558, -60.96910,
,,,764.48165, -58.56910,
,,,766.94772, -60.96910,
,,,769.41379, -60.96910,
,,,771.87986, -58.56910,
,,,774.34593, -58.56910,
,,,776.81200, -60.96910,
,,,779.27807, -58.56910,
,,,781.74414, -60.96910,
,,,784.21021, -60.96910,
,,,786.67628, -54.56910,
,,,789.14235, -54.56910,
,,,791.60842, -60.96910,
,,,794.07449, -60.96910,
,,,796.54056, -60.96910,
,,,799.00663, -58.56910,
,,,801.47270, -54.56910,
,,,803.93877, -58.56910,
,,,806.40484, -54.56910,
,,,808.87091, -54.56910,
,,,811.33698, -60.96910,
,,,813.80305, -60.96910,
,,,816.26912, -60.96910,
,,,818.73519, -60.96910,
,,,821.20126, -60.96910,
,,,823.66733, -58.56910,
,,,826.13340, -60.96910,
,,,828.59947, -60.96910,
,,,831.06554, -60.96910,
,,,833.53161, -60.96910,
,,,835.99768, -60.96910,
,,,838.46375, -60.96910,
,,,840.92982, -60.96910,
,,,843.39589, -60.96910,
,,,845.86196, -58.56910,
,,,848.32803, -58.56910,
,,,850.79410, -58.56910,
,,,853.26017, -60.96910,
,,,855.72624, -60.96910,
,,,858.19231, -60.96910,
,,,860.65838, -58.56910,
,,,863.12445, -58.56910,
,,,865.59052, -54.56910,
,,,868.05659, -60.96910,
,,,870.52266, -58.56910,
,,,872.98873, -60.96910,
,,,875.45480, -60.96910,
,,,877.92087, -58.56910,
,,,880.38694, -55.36910,
,,,882.85301, -54.56910,
,,,885.31908, -54.56910,
,,,887.78515, -54.56910,
,,,890.25122, -58.56910,
,,,892.71729, -60.96910,
,,,895.18336, -60.96910,
,,,897.64943, -60.96910,
,,,900.11550, -60.96910,
,,,902.58157, -60.96910,
,,,905.04764, -60.96910,
,,,907.51371, -60.96910,
,,,909.97978, -60.96910,
,,,912.44585, -60.96910,
,,,914.91192, -60.96910,
,,,917.37799, -60.96910,
,,,919.84406, -60.96910,
,,,922.31013, -58.56910,
,,,924.77620, -60.96910,
,,,927.24227, -55.36910,
,,,929.70834, -58.56910,
,,,932.17441, -58.56910,
,,,934.64048, -58.56910,
,,,937.10655, -60.96910,
,,,939.57262, -60.96910,
,,,942.03869, -58.56910,
,,,944.50476, -58.56910,
,,,946.97083, -54.56910,
,,,949.43690, -54.56910,
,,,951.90297, -60.96910,
,,,954.36904, -60.96910,
,,,956.83511, -58.56910,
,,,959.30118, -60.96910,
,,,961.76725, -60.96910,
,,,964.23332, -60.96910,
,,,966.69939, -60.96910,
,,,969.16546, -60.96910,
,,,971.63153, -60.96910,
,,,974.09760, -60.96910,
,,,976.56367, -60.96910,
,,,979.02974, -60.96910,
,,,981.49581, -60.96910,
,,,983.96188, -60.96910,
,,,986.42795, -58.56910,
,,,988.89402, -60.96910,
,,,991.36009, -60.96910,
,,,993.82616, -60.96910,
,,,996.29223, -60.96910,
,,,998.75830, -58.56910,
,,,1001.22437, -60.96910,
,,,1003.69044, -58.56910,
,,,1006.15651, -58.56910,
,,,1008.62258, -60.96910,
,,,1011.08865, -60.96910,
,,,1013.55472, -60.96910,
,,,1016.02079, -60.96910,
,,,1018.48686, -60.96910,
,,,1020.95293, -60.96910,
,,,1023.41900, -60.96910,
,,,1025.88507, -58.56910,
,,,1028.35114, -60.96910,
,,,1030.81721, -60.96910,
,,,1033.28328, -60.96910,
,,,1035.74935, -60.96910,
,,,1038.21542, -54.56910,
,,,1040.68149, -54.56910,
,,,1043.14756, -60.96910,
,,,1045.61363, -60.96910,
,,,1048.07970, -58.56910,
,,,1050.54577, -54.56910,
,,,1053.01184, -54.56910,
,,,1055.47791, -52.56910,
,,,1057.94398, -54.56910,
,,,1060.41005, -58.56910,
,,,1062.87612, -58.56910,
,,,1065.34219, -58.56910,
,,,1067.80826, -58.56910,
,,,1070.27433, -60.96910,
,,,1072.74040, -60.96910,
,,,1075.20647, -55.36910,
,,,1077.67254, -51.76910,
,,,1080.13861, -54.56910,
,,,1082.60468, -55.36910,
,,,1085.07075, -58.56910,
,,,1087.53682, -58.56910,
,,,1090.00289, -60.96910,
,,,1092.46896, -55.36910,
,,,1094.93503, -60.96910,
,,,1097.40110, -60.96910,
,,,1099.86717, -60.96910,
,,,1102.33324, -60.96910,
,,,1104.79931, -60.96910,
,,,1107.26538, -60.96910,
,,,1109.73145, -58.56910,
,,,1112.19752, -60.96910,
,,,1114.66359, -60.96910,
,,,1117.12966, -60.96910,
,,,1119.59573, -60.96910,
,,,1122.06180, -60.96910,
,,,1124.52787, -58.56910,
,,,1126.99394, -60.96910,
,,,1129.46001, -60.96910,
,,,1131.92608, -60.96910,
,,,1134.39215, -54.56910,
,,,1136.85822, -58.56910,
,,,1139.32429, -58.56910,
,,,1141.79036, -58.56910,
,,,1144.25643, -60.96910,
,,,1146.72250, -60.96910,
,,,1149.18857, -60.96910,
,,,1151.65464, -58.56910,
,,,1154.12071, -60.96910,
,,,1156.58678, -54.56910,
,,,1159.05285, -58.56910,
,,,1161.51892, -60.96910,
,,,1163.98499, -60.96910,
,,,1166.45106, -60.96910,
,,,1168.91713, -60.96910,
,,,1171.38320, -60.96910,
,,,1173.84927, -60.96910,
,,,1176.31534, -60.96910,
,,,1178.78141, -60.96910,
,,,1181.24748, -58.56910,
,,,1183.71355, -58.56910,
,,,1186.17962, -60.96910,
,,,1188.64569, -60.96910,
,,,1191.11176, -60.96910,
,,,1193.57783, -60.96910,
,,,1196.04390, -60.96910,
,,,1198.50997, -60.96910,
,,,1200.97604, -55.36910,
,,,1203.44211, -58.56910,
,,,1205.90818, -54.56910,
,,,1208.37425, -48.96910,
,,,1210.84032, -33.36910,
,,,1213.30639, -13.76910,
,,,1215.77246,  -9.76910,
,,,1218.23853,  -9.76910,
,,,1220.70460, -10.96910,
,,,1223.17067, -20.96910,
,,,1225.63674, -42.16910,
,,,1228.10281, -58.56910,
,,,1230.56888, -54.56910,
,,,1233.03495, -60.96910,
,,,1235.50102, -60.96910,
,,,1237.96709, -60.96910,
,,,1240.43316, -58.56910,
,,,1242.89923, -60.96910,
,,,1245.36530, -58.56910,
,,,1247.83137, -60.96910,
,,,1250.29744, -60.96910,
,,,1252.76351, -58.56910,
,,,1255.22958, -58.56910,
,,,1257.69565, -54.56910,
,,,1260.16172, -60.96910,
,,,1262.62779, -60.96910,
,,,1265.09386, -60.96910,
,,,1267.55993, -55.36910,
,,,1270.02600, -60.96910,
,,,1272.49207, -60.96910,
,,,1274.95814, -60.96910,
,,,1277.42421, -60.96910,
,,,1279.89028, -60.96910,
,,,1282.35635, -60.96910,
,,,1284.82242, -60.96910,
,,,1287.28849, -60.96910,
,,,1289.75456, -60.96910,
,,,1292.22063, -60.96910,
,,,1294.68670, -60.96910,
,,,1297.15277, -55.36910,
,,,1299.61884, -55.36910,
,,,1302.08491, -55.36910,
,,,1304.55098, -60.96910,
,,,1307.01705, -58.56910,
,,,1309.48312, -58.56910,
,,,1311.94919, -60.96910,
,,,1314.41526, -58.56910,
,,,1316.88133, -60.96910,
,,,1319.34740, -60.96910,
,,,1321.81347, -60.96910,
,,,1324.27954, -60.96910,
,,,1326.74561, -54.56910,
,,,1329.21168, -55.36910,
,,,1331.67775, -55.36910,
,,,1334.14382, -54.56910,
,,,1336.60989, -60.96910,
,,,1339.07596, -60.96910,
,,,1341.54203, -60.96910,
,,,1344.00810, -55.36910,
,,,1346.47417, -55.36910,
,,,1348.94024, -54.56910,
,,,1351.40631, -54.56910,
,,,1353.87238, -60.96910,
,,,1356.33845, -60.96910,
,,,1358.80452, -60.96910,
,,,1361.27059, -60.96910,
,,,1363.73666, -60.96910,
,,,1366.20273, -60.96910,
,,,1368.66880, -58.56910,
,,,1371.13487, -54.56910,
,,,1373.60094, -54.56910,
,,,1376.06701, -55.36910,
,,,1378.53308, -58.56910,
,,,1380.99915, -60.96910,
,,,1383.46522, -60.96910,
,,,1385.93129, -60.96910,
,,,1388.39736, -60.96910,
,,,1390.86343, -58.56910,
,,,1393.32950, -55.36910,
,,,1395.79557, -51.36910,
,,,1398.26164, -51.36910,
,,,1400.72771, -51.76910,
,,,1403.19378, -60.96910,
,,,1405.65985, -54.56910,
,,,1408.12592, -60.96910,
,,,1410.59199, -60.96910,
,,,1413.05806, -60.96910,
,,,1415.52413, -60.96910,
,,,1417.99020, -58.56910,
,,,1420.45627, -60.96910,
,,,1422.92234, -58.56910,
,,,1425.38841, -54.56910,
,,,1427.85448, -58.56910,
,,,1430.32055, -58.56910,
,,,1432.78662, -60.96910,
,,,1435.25269, -54.56910,
,,,1437.71876, -54.56910,
,,,1440.18483, -55.36910,
,,,1442.65090, -58.56910,
,,,1445.11697, -58.56910,
,,,1447.58304, -58.56910,
,,,1450.04911, -60.96910,
,,,1452.51518, -58.56910,
,,,1454.98125, -60.96910,
,,,1457.44732, -58.56910,
,,,1459.91339, -60.96910,
,,,1462.37946, -60.96910,
,,,1464.84553, -60.96910,
,,,1467.31160, -60.96910,
,,,1469.77767, -60.96910,
,,,1472.24374, -60.96910,
,,,1474.70981, -60.96910,
,,,1477.17588, -60.96910,
,,,1479.64195, -58.56910,
,,,1482.10802, -58.56910,
,,,1484.57409, -60.96910,
,,,1487.04016, -60.96910,
,,,1489.50623, -58.56910,
,,,1491.97230, -60.96910,
,,,1494.43837, -60.96910,
,,,1496.90444, -52.56910,
,,,1499.37051, -48.96910,
,,,1501.83658, -46.56910,
,,,1504.30265, -48.96910,
,,,1506.76872, -52.56910,
,,,1509.23479, -60.96910,
,,,1511.70086, -60.96910,
,,,1514.16693, -60.96910,
,,,1516.63300, -60.96910,
,,,1519.09907, -58.56910,
,,,1521.56514, -60.96910,
,,,1524.03121, -60.96910,
,,,1526.49728, -60.96910,
,,,1528.96335, -60.96910,
,,,1531.42942, -60.96910,
,,,1533.89549, -58.56910,
,,,1536.36156, -58.56910,
,,,1538.82763, -58.56910,
,,,1541.29370, -60.96910,
,,,1543.75977, -60.96910,
,,,1546.22584, -60.96910,
,,,1548.69191, -60.96910,
,,,1551.15798, -60.96910,
,,,1553.62405, -60.96910,
,,,1556.09012, -60.96910,
,,,1558.55619, -58.56910,
,,,1561.02226, -60.96910,
,,,1563.48833, -60.96910,
,,,1565.95440, -60.96910,
,,,1568.42047, -60.96910,
,,,1570.88654, -60.96910,
,,,1573.35261, -55.36910,
,,,1575.81868, -51.36910,
,,,1578.28475, -48.96910,
,,,1580.75082, -51.76910,
,,,1583.21689, -55.36910,
,,,1585.68296, -55.36910,
,,,1588.14903, -60.96910,
,,,1590.61510, -60.96910,
,,,1593.08117, -60.96910,
,,,1595.54724, -60.96910,
,,,1598.01331, -60.96910,
,,,1600.47938, -60.96910,
,,,1602.94545, -60.96910,
,,,1605.41152, -60.96910,
,,,1607.87759, -60.96910,
,,,1610.34366, -60.96910,
,,,1612.80973, -60.96910,
,,,1615.27580, -60.96910,
,,,1617.74187, -60.96910,
,,,1620.20794, -60.96910,
,,,1622.67401, -60.96910,
,,,1625.14008, -54.56910,
,,,1627.60615, -54.56910,
,,,1630.07222, -55.36910,
,,,1632.53829, -55.36910,
,,,1635.00436, -58.56910,
,,,1637.47043, -60.96910,
,,,1639.93650, -60.96910,
,,,1642.40257, -60.96910,
,,,1644.86864, -55.36910,
,,,1647.33471, -60.96910,
,,,1649.80078, -60.96910,
,,,1652.26685, -60.96910,
,,,1654.73292, -60.96910,
,,,1657.19899, -60.96910,
,,,1659.66506, -60.96910,
,,,1662.13113, -60.96910,
,,,1664.59720, -60.96910,
,,,1667.06327, -60.96910,
,,,1669.52934, -60.96910,
,,,1671.99541, -60.96910,
,,,1674.46148, -58.56910,
,,,1676.92755, -58.56910,
,,,1679.39362, -60.96910,
,,,1681.85969, -60.96910,
,,,1684.32576, -60.96910,
,,,1686.79183, -55.36910,
,,,1689.25790, -55.36910,
,,,1691.72397, -58.56910,
,,,1694.19004, -60.96910,
,,,1696.65611, -60.96910,
,,,1699.12218, -60.96910,
,,,1701.58825, -58.56910,
,,,1704.05432, -55.36910,
,,,1706.52039, -60.96910,
,,,1708.98646, -58.56910,
,,,1711.45253, -55.36910,
,,,1713.91860, -54.56910,
,,,1716.38467, -54.56910,
,,,1718.85074, -52.56910,
,,,1721.31681, -58.56910,
,,,1723.78288, -60.96910,
,,,1726.24895, -58.56910,
,,,1728.71502, -60.96910,
,,,1731.18109, -54.56910,
,,,1733.64716, -60.96910,
,,,1736.11323, -60.96910,
,,,1738.57930, -58.56910,
,,,1741.04537, -55.36910,
,,,1743.51144, -60.96910,
,,,1745.97751, -58.56910,
,,,1748.44358, -60.96910,
,,,1750.90965, -54.56910,
,,,1753.37572, -51.76910,
,,,1755.84179, -51.76910,
,,,1758.30786, -58.56910,
,,,1760.77393, -60.96910,
,,,1763.24000, -60.96910,
,,,1765.70607, -58.56910,
,,,1768.17214, -60.96910,
,,,1770.63821, -60.96910,
,,,1773.10428, -60.96910,
,,,1775.57035, -60.96910,
,,,1778.03642, -60.96910,
,,,1780.50249, -54.56910,
,,,1782.96856, -58.56910,
,,,1785.43463, -58.56910,
,,,1787.90070, -58.56910,
,,,1790.36677, -58.56910,
,,,1792.83284, -54.56910,
,,,1795.29891, -54.56910,
,,,1797.76498, -60.96910,
,,,1800.23105, -58.56910,
,,,1802.69712, -58.56910,
,,,1805.16319, -58.56910,
,,,1807.62926, -60.96910,
,,,1810.09533, -58.56910,
,,,1812.56140, -60.96910,
,,,1815.02747, -60.96910,
,,,1817.49354, -60.96910,
,,,1819.95961, -60.96910,
,,,1822.42568, -60.96910,
,,,1824.89175, -58.56910,
,,,1827.35782, -60.96910,
,,,1829.82389, -60.96910,
,,,1832.28996, -60.96910,
,,,1834.75603, -60.96910,
,,,1837.22210, -58.56910,
,,,1839.68817, -60.96910,
,,,1842.15424, -60.96910,
,,,1844.62031, -60.96910,
,,,1847.08638, -60.96910,
,,,1849.55245, -60.96910,
,,,1852.01852, -60.96910,
,,,1854.48459, -58.56910,
,,,1856.95066, -60.96910,
,,,1859.41673, -58.56910,
,,,1861.88280, -60.96910,
,,,1864.34887, -60.96910,
,,,1866.81494, -60.96910,
,,,1869.28101, -60.96910,
,,,1871.74708, -60.96910,
,,,1874.21315, -58.56910,
,,,1876.67922, -60.96910,
,,,1879.14529, -60.96910,
,,,1881.61136, -60.96910,
,,,1884.07743, -60.96910,
,,,1886.54350, -60.96910,
,,,1889.00957, -58.56910,
